R Workshop arbeidsdokument
…
# Endre datatype til faktor for variabler på nominalnivå.
data$Gender <- as_factor(data$Gender)
data$Skole <- as_factor(data$Skole)

# Fjerne de gamle objektene:
rm(prestasjonsdata, seleksjonsdata)

Utforske data

Nå som vi har datasettet vårt kan vi begynne å utforske det med forskjellige kommandoer:

data

## # A tibble: 400 x 9
##       ID Gender    AE Skolepoeng BS_karakter Tj_snitt Skole Hovedkarakter
##    <dbl> <fct>  <dbl>      <dbl>       <dbl>    <dbl> <fct>         <dbl>
##  1     1 Mann       5       52.9        6.79     7.81 Krig…          16.8
##  2     2 Mann       5       49.4        7.07     8.55 Krig…          17.4
##  3     3 Mann       5       46.4        6.03     7.63 Luft…          13.6
##  4     4 Mann       7       54.0        6.39    10.5  Krig…          17.1
##  5     5 Mann       5       49.8        6.15    10.1  Krig…          17.0
##  6     6 Kvinne     5       47.9        4.47     7.12 Krig…          15.4
##  7     7 Mann       6       47.4        6.50    10.5  Sjok…          14.0
##  8     8 Mann       6       52.9        7.78    10.9  Sjok…          16.5
##  9     9 Mann       4       48.1        6.71    10.7  Krig…          15.7
## 10    10 Mann       3       45.9        5.58     8.39 Krig…          16.9
## # … with 390 more rows, and 1 more variable: MF_SML <dbl>
…
